%YAML 1.1
%TAG !u! tag:unity3d.com,2011:
--- !u!1045 &1
EditorBuildSettings:
  m_ObjectHideFlags: 0
  serializedVersion: 2
  m_Scenes:
  - enabled: 0
    path: Assets/Old Project/Scenes/EmulatedNewtorkBoxes.unity
    guid: 128827b5a8759bd45b94e50fe086ce3e
  - enabled: 1
    path: Assets/New Project/Scenes/Test Scene.unity
    guid: 192f514122662a7439d3382e2f06c973
  m_configObjects: {}
