%YAML 1.1
%TAG !u! tag:unity3d.com,2011:
--- !u!1001 &7580193913925516689
PrefabInstance:
  m_ObjectHideFlags: 0
  serializedVersion: 2
  m_Modification:
    m_TransformParent: {fileID: 0}
    m_Modifications:
    - target: {fileID: 406772773792734738, guid: b005b943cd850eb46832bb30180a096a,
        type: 3}
      propertyPath: m_RootOrder
      value: 0
      objectReference: {fileID: 0}
    - target: {fileID: 406772773792734738, guid: b005b943cd850eb46832bb30180a096a,
        type: 3}
      propertyPath: m_LocalPosition.x
      value: 0
      objectReference: {fileID: 0}
    - target: {fileID: 406772773792734738, guid: b005b943cd850eb46832bb30180a096a,
        type: 3}
      propertyPath: m_LocalPosition.y
      value: 0
      objectReference: {fileID: 0}
    - target: {fileID: 406772773792734738, guid: b005b943cd850eb46832bb30180a096a,
        type: 3}
      propertyPath: m_LocalPosition.z
      value: 0
      objectReference: {fileID: 0}
    - target: {fileID: 406772773792734738, guid: b005b943cd850eb46832bb30180a096a,
        type: 3}
      propertyPath: m_LocalRotation.w
      value: 1
      objectReference: {fileID: 0}
    - target: {fileID: 406772773792734738, guid: b005b943cd850eb46832bb30180a096a,
        type: 3}
      propertyPath: m_LocalRotation.x
      value: 0
      objectReference: {fileID: 0}
    - target: {fileID: 406772773792734738, guid: b005b943cd850eb46832bb30180a096a,
        type: 3}
      propertyPath: m_LocalRotation.y
      value: 0
      objectReference: {fileID: 0}
    - target: {fileID: 406772773792734738, guid: b005b943cd850eb46832bb30180a096a,
        type: 3}
      propertyPath: m_LocalRotation.z
      value: 0
      objectReference: {fileID: 0}
    - target: {fileID: 406772773792734738, guid: b005b943cd850eb46832bb30180a096a,
        type: 3}
      propertyPath: m_LocalEulerAnglesHint.x
      value: 0
      objectReference: {fileID: 0}
    - target: {fileID: 406772773792734738, guid: b005b943cd850eb46832bb30180a096a,
        type: 3}
      propertyPath: m_LocalEulerAnglesHint.y
      value: 0
      objectReference: {fileID: 0}
    - target: {fileID: 406772773792734738, guid: b005b943cd850eb46832bb30180a096a,
        type: 3}
      propertyPath: m_LocalEulerAnglesHint.z
      value: 0
      objectReference: {fileID: 0}
    - target: {fileID: 665604201042798105, guid: b005b943cd850eb46832bb30180a096a,
        type: 3}
      propertyPath: m_Name
      value: Player Cube Type 2
      objectReference: {fileID: 0}
    - target: {fileID: 4432209841578135858, guid: b005b943cd850eb46832bb30180a096a,
        type: 3}
      propertyPath: m_Materials.Array.data[0]
      value: 
      objectReference: {fileID: 2100000, guid: 0eed42a0a86f3b540bf9c7b67bad1f16, type: 2}
    m_RemovedComponents: []
  m_SourcePrefab: {fileID: 100100000, guid: b005b943cd850eb46832bb30180a096a, type: 3}
